{
  "page": 1,
  "per_page": 10,
  "total": 67,
  "total_pages": 7,
  "data": [
    {
      "id": 36,
      "userId": 4,
      "userName": "Francesco De Mello",
      "timestamp": 1549391785785,
      "txnType": "debit",
      "amount": "$188.04",
      "location": {
        "id": 8,
        "address": "389, Everest, Barwell Terrace",
        "city": "Murillo",
        "zipCode": 66061
      },
      "ip": "5.116.1.11"
    }
  ]
}